[
  {
    "id": "3453434",
    "value": "Nowy"
  },
  {
    "id": "67567657",
    "value": "Wysłany"
  },
  {
    "id": "345345",
    "value": "W trakcie akceptacji"
  },
  {
    "id": "MESSAGE_WORKING_COPY",
    "value": "Kopia robocza"
  },
  {
    "id": "235432",
    "value": "Zakceptowany"
  },
  {
    "id": "23423423",
    "value": "Archiwalny"
  },
  {
    "id": "34511",
    "value": "W trakcie realizacji"
  },
  {
    "id": "MESSAGE_ENDED",
    "value": "Zakończone"
  },
  {
    "id": "COMPLETED",
    "value": "Zrealizowane"
  },
  {
    "id": "REJECTED",
    "value": "Odrzucone"
  }
]