[
  {
    "id": "123456789",
    "type": "Kredyt hipoteczny",
    "name": "Nazwa kredytu 1",
    "accountNumber": "58123445671245869467321856",
    "acceptedAmount": {
      "amount": 123456789,
      "currency": "PLN"
    },
    "amountToPayout": {
      "amount": 123456789,
      "currency": "PLN"
    }
  },
  {
    "id": "123456789",
    "type": "Kredyt hipoteczny",
    "name": "Nazwa kredytu 1",
    "accountNumber": "58123445671245869467321856",
    "acceptedAmount": {
      "amount": 123456789,
      "currency": "PLN"
    },
    "amountToPayout": {
      "amount": 123456789,
      "currency": "PLN"
    }
  },
  {
    "id": "123456789",
    "type": "Kredyt hipoteczny",
    "name": "Nazwa kredytu 1",
    "accountNumber": "58123445671245869467321856",
    "acceptedAmount": {
      "amount": 123456789,
      "currency": "PLN"
    },
    "amountToPayout": {
      "amount": 123456789,
      "currency": "PLN"
    }
  },
  {
    "id": "123456789",
    "type": "Kredyt hipoteczny",
    "name": "Nazwa kredytu 1",
    "accountNumber": "58123445671245869467321856",
    "acceptedAmount": {
      "amount": 123456789,
      "currency": "PLN"
    },
    "amountToPayout": {
      "amount": 123456789,
      "currency": "PLN"
    }
  }
]